{
    "db": {
        "host": "localhost",
        "user": "",
        "database": "",
        "password": ""
    },
    "users": {
        "admin": ""
    },
    "dynamic_questions": false,
    "default_category_id": "",
    "port": 8000
}
